03.489.284/0001-10|32390656811|29-03-2011|6|10-07-2011|402.00|DUPLICATA||||||1%10-07-2011%67.00|2%10-08-2011%67.00|3%10-09-2011%67.00|4%10-10-2011%67.00|5%10-11-2011%67.00|6%10-12-2011%67.00|F%%1%RODRIGO ANTONIO RIATO%34,780,078,6%RUA BOM JESUS,1517%JARDIM BOM JESUS%%15704180%JALES%SP%3632 4414%9725 2360%%%%%%SOLTEIRO%%RUA BOM JESUS, 1517, JARDIM BOM JESUS%JALES%SP%LUIZ CARLOS RIATO%%%%%TANIA REGINA APARECIDA AIJADO RIARO%%%%#
03.489.284/0001-10|32390656811|13-04-2011|7|23-07-2011|343.00|DUPLICATA||||||1%23-07-2011%49.00|2%23-08-2011%49.00|3%23-09-2011%49.00|4%23-10-2011%49.00|5%23-11-2011%49.00|6%23-12-2011%49.00|7%23-01-2012%49.00|F%%1%RODRIGO ANTONIO RIATO%34,780,078,6%RUA BOM JESUS,1517%JARDIM BOM JESUS%%15704180%JALES%SP%3632 4414%9725 2360%%%%%%SOLTEIRO%%RUA BOM JESUS, 1517, JARDIM BOM JESUS%JALES%SP%LUIZ CARLOS RIATO%%%%%TANIA REGINA APARECIDA AIJADO RIARO%%%%#
03.489.284/0001-10|32390656811|30-05-2011|12|10-07-2011|905.00|DUPLICATA||||||1%10-07-2011%75.00|2%10-08-2011%75.00|3%10-09-2011%75.00|4%10-10-2011%75.00|5%10-11-2011%75.00|6%10-12-2011%75.00|7%10-01-2012%75.00|8%10-02-2012%76.00|9%10-03-2012%76.00|10%10-04-2012%76.00|11%10-05-2012%76.00|12%10-06-2012%76.00|F%%1%RODRIGO ANTONIO RIATO%34,780,078,6%RUA BOM JESUS,1517%JARDIM BOM JESUS%%15704180%JALES%SP%3632 4414%9725 2360%%%%%%SOLTEIRO%%RUA BOM JESUS, 1517, JARDIM BOM JESUS%JALES%SP%LUIZ CARLOS RIATO%%%%%TANIA REGINA APARECIDA AIJADO RIARO%%%%#
03.489.284/0001-10|32390656811|30-05-2011|12|10-07-2011|457.00|DUPLICATA||||||1%10-07-2011%38.00|2%10-08-2011%38.00|3%10-09-2011%38.00|4%10-10-2011%38.00|5%10-11-2011%38.00|6%10-12-2011%38.00|7%10-01-2012%38.00|8%10-02-2012%38.00|9%10-03-2012%38.00|10%10-04-2012%38.00|11%10-05-2012%38.00|12%10-06-2012%39.00|F%%1%RODRIGO ANTONIO RIATO%34,780,078,6%RUA BOM JESUS,1517%JARDIM BOM JESUS%%15704180%JALES%SP%3632 4414%9725 2360%%%%%%SOLTEIRO%%RUA BOM JESUS, 1517, JARDIM BOM JESUS%JALES%SP%LUIZ CARLOS RIATO%%%%%TANIA REGINA APARECIDA AIJADO RIARO%%%%#
