{
  "(CPF/CNPJ DO CREDOR) FORMATO=00.000.000/0000-00": {
    "INADIMPLENTES": [
      {
        "CPFCNPJ": "000.000.000-00",
        "TIPOPESSOA": "F=FISICA,J=JURIDICA",
        "SEXO": "M=MASCULINO,F=FEMININO",
        "NOME": "NOME DO INADIMPLENTE",
        "ESTADOCIVIL": "(CAMPO NUMERICO) 1=SOLTEIRO,2=CASADO,3=SEPARADO,4=DIVORCIADO,5=VIUVO,6=AMASIADO",
        "RG": "00000000-0",
        "ENDERECO": "AVENIDA MODELO, 00",
        "COMPLEMENTO": "AP 0",
        "CEP": "00000-000",
        "BAIRRO": "BAIRRO MODELO",
        "CIDADE": "CIDADE MODELO",
        "UF": "SP",
        "TELEFONERES": "(00)32323232",
        "TELEFONEREC": "(00)32323232",
        "TELEFONECOM": "(00)32323232",
        "CELULAR1": "(00)99999-9999",
        "CELULAR2": "(00)99999-9999",
        "CELULAR3": "(00)99999-9999",
        "EMAIL": "modelo@modelo.com.br",
        "EMAILALT": "modelo2@modelo.com.br",
        "CONJUGENOME": "NOME DO CONJUGE",
        "CONJUGECPF": "000.000.000-00",
        "CONJUGEFONE": "modelo@modelo.com.br",
        "CONJUGEENDERECO": "AVENIDA MODELO, 00",
        "CONJUGECIDADE": "CIDADE MODELO",
        "CONJUGEUF": "SP",
        "PAINOME": "NOME DO PAI",
        "PAIFONE": "(00)32323232",
        "PAIENDERECO": "AVENIDA MODELO, 00",
        "PAICIDADE": "CIDADE MODELO",
        "PAIUF": "SP",
        "MAENOME": "NOME DA MAE",
        "MAEFONE": "(00)32323232",
        "MAEENDERECO": "AVENIDA MODELO, 00",
        "MAECIDADE": "CIDADE MODELO",
        "MAEUF": "SP",
        "OBSERVACOES": "QUALQUER INFORMACAO ADICIONAL RELEVANTE",
        "DIVIDAS": [
          {
            "TIPODOC": "(CAMPO TEXTO) BOLETO,CARNE,CHEQUE,DUPLICATA,VALE,PROMISSORIA",
            "BANCO": "000",
            "AGENCIA": "0000",
            "ALINEA": "0",
            "DATAEMISSAO": "AAAA-MM-DD",
            "NUMPARCELAS": "99",
            "INFORMACOES": "QUALQUER INFORMACAO ADICIONAL RELEVANTE",
            "VALORTOTAL": "9999.99",
            "PARCELAS": [
              {
                "NUMPARCELA": "1",
                "NUMDOC": "29(EX: NUM DO CHEQUE)",
                "VENCIMENTO": "AAAA-MM-DD",
                "VALOR": "9999.99"
              }
            ]
          },
          {
            "TIPODOC": "(CAMPO TEXTO) BOLETO,CARNE,CHEQUE,DUPLICATA,VALE,PROMISSORIA",
            "BANCO": "000",
            "AGENCIA": "0000",
            "ALINEA": "0",
            "DATAEMISSAO": "AAAA-MM-DD",
            "NUMPARCELAS": "3",
            "INFORMACOES": "QUALQUER INFORMACAO ADICIONAL RELEVANTE",
            "VALORTOTAL": "9999.99",
            "PARCELAS": [
              {
                "NUMPARCELA": "1",
                "NUMDOC": "97(EX: NUM DO CHEQUE)",
                "VENCIMENTO": "AAAA-MM-DD",
                "VALOR": "9999.99"
              },
              {
                "NUMPARCELA": "2",
                "NUMDOC": "98(EX: NUM DO CHEQUE)",
                "VENCIMENTO": "AAAA-MM-DD",
                "VALOR": "9999.99"
              },
              {
                "NUMPARCELA": "3",
                "NUMDOC": "99(EX: NUM DO CHEQUE)",
                "VENCIMENTO": "AAAA-MM-DD",
                "VALOR": "9999.99"
              }
            ]
          }
        ]
      }
    ]
  }
}
